…
    ## Warning: `tune_grid.formula()` is deprecated as of lifecycle 0.1.0.
    ## The first argument to `tune_grid()` should be either a model or a workflow. In the future, you can use:
    ## tune_grid(lasso_spec, Resposta ~ ., resamples = cv_splits, grid = lambda_grid, 
    ##     metrics = metric_set(roc_auc, spec, recall, precision))
    ## This warning is displayed once every 8 hours.
    ## Call `lifecycle::last_warnings()` to see where this warning was generated.

``` r
lasso_tune %>%
  collect_metrics()
```

    ## # A tibble: 200 x 6
    ##     penalty .metric   .estimator  mean     n std_err
    ##       <dbl> <chr>     <chr>      <dbl> <int>   <dbl>
    ##  1 1.00e-10 precision binary     0.821     5 0.00271
    ##  2 1.00e-10 recall    binary     0.776     5 0.00424
    ##  3 1.00e-10 roc_auc   binary     0.887     5 0.00105
    ##  4 1.00e-10 spec      binary     0.839     5 0.00367
    ##  5 1.60e-10 precision binary     0.821     5 0.00271
    ##  6 1.60e-10 recall    binary     0.776     5 0.00424
    ##  7 1.60e-10 roc_auc   binary     0.887     5 0.00105
    ##  8 1.60e-10 spec      binary     0.839     5 0.00367
    ##  9 2.56e-10 precision binary     0.821     5 0.00271
    ## 10 2.56e-10 recall    binary     0.776     5 0.00424
    ## # … with 190 more rows
…
